{
    "new_entries": {
        "has_next": false,
        "page": 1,
        "results": []
    },
    "last_updated_data": "2023-02-15T22:33:07Z",
    "league": {
        "id": 111,
        "name": "Guyana",
        "created": "2022-07-05T09:51:59.116866Z",
        "closed": false,
        "max_entries": null,
        "league_type": "s",
        "scoring": "c",
        "admin_entry": null,
        "start_event": 1,
        "code_privacy": "p",
        "has_cup": true,
        "cup_league": null,
        "rank": null
    },
    "standings": {
        "has_next": true,
        "page": 1,
        "results": [
            {
                "id": 54962804,
                "event_total": 78,
                "player_name": "Kevin Sears",
                "rank": 1,
                "last_rank": 1,
                "rank_sort": 1,
                "total": 1506,
                "entry": 7532189,
                "entry_name": "SpecialK FC"
            },
            {
                "id": 4687363,
                "event_total": 92,
                "player_name": "Jean-Pierre Nathoo",
                "rank": 2,
                "last_rank": 6,
                "rank_sort": 2,
                "total": 1494,
                "entry": 897198,
                "entry_name": "JP United"
            },
            {
                "id": 597670,
                "event_total": 77,
                "player_name": "Matt Patey",
                "rank": 3,
                "last_rank": 3,
                "rank_sort": 3,
                "total": 1486,
                "entry": 113407,
                "entry_name": "Bissouma Matata"
            },
            {
                "id": 4944970,
                "event_total": 101,
                "player_name": "Shoaib Juman-Yassin",
                "rank": 4,
                "last_rank": 11,
                "rank_sort": 4,
                "total": 1484,
                "entry": 946214,
                "entry_name": "DisguisenutsFC"
            },
            {
                "id": 7813591,
                "event_total": 62,
                "player_name": "Marvin Cheong",
                "rank": 5,
                "last_rank": 2,
                "rank_sort": 5,
                "total": 1481,
                "entry": 1469715,
                "entry_name": "kingreno"
            },
            {
                "id": 5002885,
                "event_total": 63,
                "player_name": "Le Andrea Gillis",
                "rank": 6,
                "last_rank": 4,
                "rank_sort": 6,
                "total": 1472,
                "entry": 957089,
                "entry_name": "Bramoviç FC"
            },
            {
                "id": 31588402,
                "event_total": 77,
                "player_name": "Oliver Downes",
                "rank": 7,
                "last_rank": 5,
                "rank_sort": 7,
                "total": 1471,
                "entry": 4910980,
                "entry_name": "No’Salah"
            },
            {
                "id": 44276704,
                "event_total": 78,
                "player_name": "Avinaish Salim",
                "rank": 8,
                "last_rank": 8,
                "rank_sort": 8,
                "total": 1468,
                "entry": 6248068,
                "entry_name": "BLYXI"
            },
            {
                "id": 680533,
                "event_total": 78,
                "player_name": "Sir Miksha Crossman",
                "rank": 9,
                "last_rank": 9,
                "rank_sort": 9,
                "total": 1468,
                "entry": 128931,
                "entry_name": "TheMayor&CityCouncil"
            },
            {
                "id": 52865088,
                "event_total": 78,
                "player_name": "Ryan Shivraj",
                "rank": 10,
                "last_rank": 10,
                "rank_sort": 10,
                "total": 1466,
                "entry": 7284396,
                "entry_name": "Rushed but Loaded"
            },
            {
                "id": 620371,
                "event_total": 75,
                "player_name": "Eyon Shivraj",
                "rank": 11,
                "last_rank": 7,
                "rank_sort": 11,
                "total": 1465,
                "entry": 117464,
                "entry_name": "Donk Squad"
            },
            {
                "id": 15184019,
                "event_total": 82,
                "player_name": "Tevon Stoll",
                "rank": 12,
                "last_rank": 13,
                "rank_sort": 12,
                "total": 1462,
                "entry": 2643180,
                "entry_name": "QuadrupleReds"
            },
            {
                "id": 150527,
                "event_total": 75,
                "player_name": "Jordon Nelson",
                "rank": 13,
                "last_rank": 12,
                "rank_sort": 13,
                "total": 1458,
                "entry": 29458,
                "entry_name": "Ok"
            },
            {
                "id": 23819080,
                "event_total": 91,
                "player_name": "Jermaine Samaroo",
                "rank": 14,
                "last_rank": 23,
                "rank_sort": 14,
                "total": 1454,
                "entry": 3934569,
                "entry_name": "Renegade XI"
            },
            {
                "id": 1194181,
                "event_total": 81,
                "player_name": "Jeremy De Freitas",
                "rank": 15,
                "last_rank": 17,
                "rank_sort": 15,
                "total": 1452,
                "entry": 232353,
                "entry_name": "Viperz F.C."
            },
            {
                "id": 8209281,
                "event_total": 85,
                "player_name": "John Chung",
                "rank": 16,
                "last_rank": 22,
                "rank_sort": 16,
                "total": 1451,
                "entry": 1544297,
                "entry_name": "JMC The Belligerent"
            },
            {
                "id": 36655584,
                "event_total": 78,
                "player_name": "Antonio Dasilva",
                "rank": 17,
                "last_rank": 19,
                "rank_sort": 17,
                "total": 1449,
                "entry": 5459690,
                "entry_name": "La Liga FC"
            },
            {
                "id": 1087680,
                "event_total": 78,
                "player_name": "Colin Abel",
                "rank": 18,
                "last_rank": 20,
                "rank_sort": 18,
                "total": 1448,
                "entry": 210623,
                "entry_name": "Barely Able FC"
            },
            {
                "id": 2525975,
                "event_total": 69,
                "player_name": "Simeon Castello",
                "rank": 19,
                "last_rank": 14,
                "rank_sort": 19,
                "total": 1445,
                "entry": 493739,
                "entry_name": "BigStePPerS"
            },
            {
                "id": 640133,
                "event_total": 72,
                "player_name": "Cristiano Messi",
                "rank": 20,
                "last_rank": 15,
                "rank_sort": 20,
                "total": 1445,
                "entry": 121162,
                "entry_name": "Autopit Allstars"
            },
            {
                "id": 268906,
                "event_total": 83,
                "player_name": "Godfrey Matthews",
                "rank": 21,
                "last_rank": 27,
                "rank_sort": 21,
                "total": 1445,
                "entry": 50817,
                "entry_name": "MatthewsFC"
            },
            {
                "id": 74827,
                "event_total": 73,
                "player_name": "Jonathan Beepat",
                "rank": 22,
                "last_rank": 16,
                "rank_sort": 22,
                "total": 1445,
                "entry": 15880,
                "entry_name": "Jonnojetsetter FC"
            },
            {
                "id": 8135510,
                "event_total": 89,
                "player_name": "Michael Singh",
                "rank": 23,
                "last_rank": 33,
                "rank_sort": 23,
                "total": 1444,
                "entry": 1530882,
                "entry_name": "Paris Saint-Germain"
            },
            {
                "id": 14645308,
                "event_total": 73,
                "player_name": "Troy Jeeboo",
                "rank": 24,
                "last_rank": 21,
                "rank_sort": 24,
                "total": 1443,
                "entry": 2597035,
                "entry_name": "Virgil Vantastic"
            },
            {
                "id": 2394729,
                "event_total": 98,
                "player_name": "Zach Gonsalves",
                "rank": 25,
                "last_rank": 35,
                "rank_sort": 25,
                "total": 1443,
                "entry": 468269,
                "entry_name": "Z FC"
            },
            {
                "id": 139440,
                "event_total": 79,
                "player_name": "Shane Brebner",
                "rank": 26,
                "last_rank": 24,
                "rank_sort": 26,
                "total": 1442,
                "entry": 27524,
                "entry_name": "ICEMEN"
            },
            {
                "id": 13330129,
                "event_total": 85,
                "player_name": "Sunil Rupee",
                "rank": 27,
                "last_rank": 31,
                "rank_sort": 27,
                "total": 1441,
                "entry": 2409306,
                "entry_name": "Deep Dive"
            },
            {
                "id": 8519449,
                "event_total": 89,
                "player_name": "Brandon Limerick",
                "rank": 28,
                "last_rank": 36,
                "rank_sort": 28,
                "total": 1440,
                "entry": 1599492,
                "entry_name": "CASPA"
            },
            {
                "id": 39095718,
                "event_total": 80,
                "player_name": "Jordon Nelson",
                "rank": 29,
                "last_rank": 25,
                "rank_sort": 29,
                "total": 1440,
                "entry": 5685629,
                "entry_name": "Backup"
            },
            {
                "id": 44771160,
                "event_total": 91,
                "player_name": "Trevon Davidson",
                "rank": 30,
                "last_rank": 39,
                "rank_sort": 30,
                "total": 1437,
                "entry": 6309253,
                "entry_name": "⚽️�Ballerz �⚽️"
            },
            {
                "id": 798880,
                "event_total": 100,
                "player_name": "LaKacy Hazel",
                "rank": 31,
                "last_rank": 46,
                "rank_sort": 31,
                "total": 1437,
                "entry": 152396,
                "entry_name": "La Bella Mafia"
            },
            {
                "id": 11546556,
                "event_total": 92,
                "player_name": "Ronnie Persaud",
                "rank": 32,
                "last_rank": 44,
                "rank_sort": 32,
                "total": 1434,
                "entry": 2113780,
                "entry_name": "Dream Team XI"
            },
            {
                "id": 36812412,
                "event_total": 80,
                "player_name": "Tommy Priyohutomo",
                "rank": 33,
                "last_rank": 34,
                "rank_sort": 33,
                "total": 1434,
                "entry": 5460968,
                "entry_name": "winsarow"
            },
            {
                "id": 22889425,
                "event_total": 74,
                "player_name": "kevin o'hagan",
                "rank": 34,
                "last_rank": 30,
                "rank_sort": 34,
                "total": 1433,
                "entry": 3801380,
                "entry_name": "2 Girls 1 Schlupp"
            },
            {
                "id": 32249347,
                "event_total": 85,
                "player_name": "Robert Griffith",
                "rank": 35,
                "last_rank": 38,
                "rank_sort": 35,
                "total": 1433,
                "entry": 4994203,
                "entry_name": "Mo’ Salahra"
            },
            {
                "id": 3554406,
                "event_total": 100,
                "player_name": "kareem critchlow",
                "rank": 36,
                "last_rank": 49,
                "rank_sort": 36,
                "total": 1433,
                "entry": 686733,
                "entry_name": "KC United"
            },
            {
                "id": 14581277,
                "event_total": 70,
                "player_name": "Teon James",
                "rank": 37,
                "last_rank": 26,
                "rank_sort": 37,
                "total": 1432,
                "entry": 2590397,
                "entry_name": "Team JAMES"
            },
            {
                "id": 7242793,
                "event_total": 76,
                "player_name": "Judah Stephney",
                "rank": 38,
                "last_rank": 32,
                "rank_sort": 38,
                "total": 1432,
                "entry": 1364207,
                "entry_name": "fish & chips"
            },
            {
                "id": 23124206,
                "event_total": 74,
                "player_name": "Sunil - S",
                "rank": 39,
                "last_rank": 28,
                "rank_sort": 39,
                "total": 1431,
                "entry": 3836487,
                "entry_name": "Corentyne Thunder"
            },
            {
                "id": 56298,
                "event_total": 100,
                "player_name": "Yolande Semple",
                "rank": 40,
                "last_rank": 53,
                "rank_sort": 40,
                "total": 1431,
                "entry": 12245,
                "entry_name": "Chipmunk FC"
            },
            {
                "id": 548199,
                "event_total": 55,
                "player_name": "Tamesh D",
                "rank": 41,
                "last_rank": 18,
                "rank_sort": 41,
                "total": 1426,
                "entry": 103829,
                "entry_name": "Pique Blinders"
            },
            {
                "id": 15119142,
                "event_total": 88,
                "player_name": "Captian Sparrow",
                "rank": 42,
                "last_rank": 45,
                "rank_sort": 42,
                "total": 1425,
                "entry": 2639038,
                "entry_name": "No Way Josè"
            },
            {
                "id": 11206820,
                "event_total": 79,
                "player_name": "Mahmood Khan",
                "rank": 43,
                "last_rank": 41,
                "rank_sort": 43,
                "total": 1424,
                "entry": 2056589,
                "entry_name": "MAFKHAN"
            },
            {
                "id": 47756832,
                "event_total": 85,
                "player_name": "Oswald Forthe",
                "rank": 44,
                "last_rank": 47,
                "rank_sort": 44,
                "total": 1424,
                "entry": 6682606,
                "entry_name": "Jesús Take Da Wheel"
            },
            {
                "id": 4908616,
                "event_total": 64,
                "player_name": "Marvin Johnson",
                "rank": 45,
                "last_rank": 29,
                "rank_sort": 45,
                "total": 1424,
                "entry": 939333,
                "entry_name": "Liverpool FC"
            },
            {
                "id": 48650318,
                "event_total": 86,
                "player_name": "Adrian Barrow",
                "rank": 46,
                "last_rank": 48,
                "rank_sort": 46,
                "total": 1423,
                "entry": 6789657,
                "entry_name": "Ha La Laand"
            },
            {
                "id": 672355,
                "event_total": 71,
                "player_name": "Adesh Khayyam",
                "rank": 47,
                "last_rank": 37,
                "rank_sort": 47,
                "total": 1420,
                "entry": 127316,
                "entry_name": "A_desh_of_salt"
            },
            {
                "id": 48309976,
                "event_total": 88,
                "player_name": "Omal Sutton",
                "rank": 48,
                "last_rank": 51,
                "rank_sort": 48,
                "total": 1420,
                "entry": 6752041,
                "entry_name": "TrapStarzzz"
            },
            {
                "id": 6069013,
                "event_total": 76,
                "player_name": "Steven Hermanstein",
                "rank": 49,
                "last_rank": 40,
                "rank_sort": 49,
                "total": 1418,
                "entry": 1149450,
                "entry_name": "Old Brixtonians"
            },
            {
                "id": 1046488,
                "event_total": 79,
                "player_name": "Seaon Jackman",
                "rank": 50,
                "last_rank": 55,
                "rank_sort": 50,
                "total": 1413,
                "entry": 202152,
                "entry_name": "SeaonFC"
            }
        ]
    }
}