{
    "new_entries": {
        "has_next": false,
        "page": 1,
        "results": []
    },
    "last_updated_data": "2023-02-05T20:34:06Z",
    "league": {
        "id": 124,
        "name": "Ireland",
        "created": "2022-07-05T09:51:59.233561Z",
        "closed": false,
        "max_entries": null,
        "league_type": "s",
        "scoring": "c",
        "admin_entry": null,
        "start_event": 1,
        "code_privacy": "p",
        "has_cup": true,
        "cup_league": 2424303,
        "rank": null
    },
    "standings": {
        "has_next": true,
        "page": 1,
        "results": [
            {
                "id": 22912938,
                "event_total": 71,
                "player_name": "pierce doody",
                "rank": 1,
                "last_rank": 2,
                "rank_sort": 1,
                "total": 1498,
                "entry": 3804859,
                "entry_name": "Ball hopping 11"
            },
            {
                "id": 21466079,
                "event_total": 54,
                "player_name": "Mickey Mc Crink",
                "rank": 2,
                "last_rank": 1,
                "rank_sort": 2,
                "total": 1491,
                "entry": 3589482,
                "entry_name": "JESUS RICE"
            },
            {
                "id": 45289624,
                "event_total": 61,
                "player_name": "Peter Lougheed",
                "rank": 3,
                "last_rank": 3,
                "rank_sort": 3,
                "total": 1481,
                "entry": 6373152,
                "entry_name": "Come on the Pegs"
            },
            {
                "id": 49811130,
                "event_total": 68,
                "player_name": "Greg Bateson",
                "rank": 4,
                "last_rank": 7,
                "rank_sort": 4,
                "total": 1476,
                "entry": 6925330,
                "entry_name": "DJ Kalidou"
            },
            {
                "id": 4203128,
                "event_total": 91,
                "player_name": "Eoin O'Connell",
                "rank": 5,
                "last_rank": 41,
                "rank_sort": 5,
                "total": 1475,
                "entry": 808801,
                "entry_name": "Eoins Army"
            },
            {
                "id": 44241278,
                "event_total": 72,
                "player_name": "Garrett Smyth",
                "rank": 6,
                "last_rank": 11,
                "rank_sort": 6,
                "total": 1474,
                "entry": 6243832,
                "entry_name": "Fiercalicious"
            },
            {
                "id": 41075263,
                "event_total": 61,
                "player_name": "Sean McKiernan",
                "rank": 7,
                "last_rank": 5,
                "rank_sort": 7,
                "total": 1473,
                "entry": 5889020,
                "entry_name": "Breaking Ball"
            },
            {
                "id": 2208649,
                "event_total": 78,
                "player_name": "Gary Stephens",
                "rank": 8,
                "last_rank": 19,
                "rank_sort": 8,
                "total": 1471,
                "entry": 432030,
                "entry_name": "Korma Chameleon"
            },
            {
                "id": 549862,
                "event_total": 78,
                "player_name": "Adam O’Brien",
                "rank": 9,
                "last_rank": 21,
                "rank_sort": 9,
                "total": 1471,
                "entry": 104155,
                "entry_name": "Haalandaise Sauce"
            },
            {
                "id": 42624082,
                "event_total": 56,
                "player_name": "Tomás Geary",
                "rank": 10,
                "last_rank": 4,
                "rank_sort": 10,
                "total": 1470,
                "entry": 6048826,
                "entry_name": "Hillview Rovers"
            },
            {
                "id": 27947164,
                "event_total": 77,
                "player_name": "David Harpur",
                "rank": 11,
                "last_rank": 22,
                "rank_sort": 11,
                "total": 1469,
                "entry": 4459116,
                "entry_name": "Gucci Gang"
            },
            {
                "id": 47478451,
                "event_total": 57,
                "player_name": "Stuart Creane",
                "rank": 12,
                "last_rank": 6,
                "rank_sort": 12,
                "total": 1468,
                "entry": 6647783,
                "entry_name": "FC Spare some change"
            },
            {
                "id": 40174214,
                "event_total": 81,
                "player_name": "Rory Keogh",
                "rank": 13,
                "last_rank": 33,
                "rank_sort": 13,
                "total": 1467,
                "entry": 5794957,
                "entry_name": "Fruadiola"
            },
            {
                "id": 48304412,
                "event_total": 65,
                "player_name": "Tom Armstrong",
                "rank": 14,
                "last_rank": 10,
                "rank_sort": 14,
                "total": 1467,
                "entry": 6751358,
                "entry_name": "Barnicle Ruble"
            },
            {
                "id": 6517049,
                "event_total": 61,
                "player_name": "Dara Keane",
                "rank": 15,
                "last_rank": 8,
                "rank_sort": 15,
                "total": 1466,
                "entry": 1232902,
                "entry_name": "Change Name"
            },
            {
                "id": 7571305,
                "event_total": 80,
                "player_name": "Mark Townsend",
                "rank": 16,
                "last_rank": 38,
                "rank_sort": 16,
                "total": 1465,
                "entry": 1423954,
                "entry_name": "Personal Jesus"
            },
            {
                "id": 2029236,
                "event_total": 76,
                "player_name": "Adam White",
                "rank": 17,
                "last_rank": 30,
                "rank_sort": 17,
                "total": 1464,
                "entry": 396566,
                "entry_name": "Knock before MK"
            },
            {
                "id": 15392725,
                "event_total": 79,
                "player_name": "David Crean",
                "rank": 18,
                "last_rank": 43,
                "rank_sort": 18,
                "total": 1463,
                "entry": 2674599,
                "entry_name": "Man Red"
            },
            {
                "id": 11706059,
                "event_total": 68,
                "player_name": "Fergal Mc Guinness",
                "rank": 19,
                "last_rank": 17,
                "rank_sort": 19,
                "total": 1463,
                "entry": 2139901,
                "entry_name": "Ten Haagen Dazs"
            },
            {
                "id": 4069819,
                "event_total": 76,
                "player_name": "Mark Smith",
                "rank": 20,
                "last_rank": 34,
                "rank_sort": 20,
                "total": 1462,
                "entry": 783397,
                "entry_name": "Roboklopp FC"
            },
            {
                "id": 1493054,
                "event_total": 76,
                "player_name": "Conor Meehan",
                "rank": 21,
                "last_rank": 37,
                "rank_sort": 21,
                "total": 1461,
                "entry": 292574,
                "entry_name": "Clonminch Rovers"
            },
            {
                "id": 541592,
                "event_total": 68,
                "player_name": "Joseph Rodgers",
                "rank": 22,
                "last_rank": 24,
                "rank_sort": 22,
                "total": 1460,
                "entry": 102539,
                "entry_name": "IFC"
            },
            {
                "id": 7629371,
                "event_total": 72,
                "player_name": "Zach Murphy",
                "rank": 23,
                "last_rank": 31,
                "rank_sort": 23,
                "total": 1459,
                "entry": 1434457,
                "entry_name": "Dieseltime"
            },
            {
                "id": 34100140,
                "event_total": 56,
                "player_name": "Stephen Murray",
                "rank": 24,
                "last_rank": 9,
                "rank_sort": 24,
                "total": 1458,
                "entry": 5233185,
                "entry_name": "No.2 Frank McCourt"
            },
            {
                "id": 1722165,
                "event_total": 80,
                "player_name": "Robert O' Connell",
                "rank": 25,
                "last_rank": 66,
                "rank_sort": 25,
                "total": 1457,
                "entry": 336854,
                "entry_name": "Kilkillahara Rovers"
            },
            {
                "id": 54130259,
                "event_total": 58,
                "player_name": "Tomás Hanley",
                "rank": 26,
                "last_rank": 14,
                "rank_sort": 26,
                "total": 1457,
                "entry": 7432822,
                "entry_name": "Sauce FC"
            },
            {
                "id": 47147074,
                "event_total": 79,
                "player_name": "Aisling Corbally",
                "rank": 27,
                "last_rank": 71,
                "rank_sort": 27,
                "total": 1455,
                "entry": 6605746,
                "entry_name": "Whyndon Wanderers"
            },
            {
                "id": 21173230,
                "event_total": 68,
                "player_name": "Christian Jackson",
                "rank": 28,
                "last_rank": 32,
                "rank_sort": 28,
                "total": 1455,
                "entry": 3548272,
                "entry_name": "Rory Delap dancer"
            },
            {
                "id": 45605203,
                "event_total": 74,
                "player_name": "Caelum Kiely",
                "rank": 29,
                "last_rank": 50,
                "rank_sort": 29,
                "total": 1455,
                "entry": 6412354,
                "entry_name": "Spirit of the blues"
            },
            {
                "id": 32619834,
                "event_total": 53,
                "player_name": "David Mackey",
                "rank": 30,
                "last_rank": 12,
                "rank_sort": 30,
                "total": 1454,
                "entry": 5045454,
                "entry_name": "Gunners Fc"
            },
            {
                "id": 25677369,
                "event_total": 72,
                "player_name": "Michael McCarron",
                "rank": 31,
                "last_rank": 46,
                "rank_sort": 31,
                "total": 1454,
                "entry": 4202009,
                "entry_name": "GiroudLetTheDogsOut?"
            },
            {
                "id": 142451,
                "event_total": 92,
                "player_name": "Sam Hyland",
                "rank": 32,
                "last_rank": 208,
                "rank_sort": 32,
                "total": 1454,
                "entry": 28101,
                "entry_name": "Fitzl Palace"
            },
            {
                "id": 26936999,
                "event_total": 77,
                "player_name": "Owen Gubbins",
                "rank": 33,
                "last_rank": 53,
                "rank_sort": 33,
                "total": 1453,
                "entry": 4344144,
                "entry_name": "In the bag Ten Hag"
            },
            {
                "id": 5311277,
                "event_total": 88,
                "player_name": "Darragh McCarthy",
                "rank": 34,
                "last_rank": 163,
                "rank_sort": 34,
                "total": 1453,
                "entry": 1013077,
                "entry_name": "Rathmarkey FC"
            },
            {
                "id": 13997,
                "event_total": 76,
                "player_name": "Conor's Team",
                "rank": 35,
                "last_rank": 68,
                "rank_sort": 35,
                "total": 1453,
                "entry": 3390,
                "entry_name": "Blessington Babes"
            },
            {
                "id": 2235777,
                "event_total": 80,
                "player_name": "Gavan Glynn",
                "rank": 36,
                "last_rank": 87,
                "rank_sort": 36,
                "total": 1452,
                "entry": 437140,
                "entry_name": "Big Bad Bonucci"
            },
            {
                "id": 15900798,
                "event_total": 67,
                "player_name": "Rob Turpin",
                "rank": 36,
                "last_rank": 35,
                "rank_sort": 37,
                "total": 1452,
                "entry": 2753099,
                "entry_name": "RTFC"
            },
            {
                "id": 3046973,
                "event_total": 80,
                "player_name": "Peter O'Reilly",
                "rank": 38,
                "last_rank": 88,
                "rank_sort": 38,
                "total": 1452,
                "entry": 592163,
                "entry_name": "Howe am I so good"
            },
            {
                "id": 4739105,
                "event_total": 60,
                "player_name": "John Horgan",
                "rank": 39,
                "last_rank": 23,
                "rank_sort": 39,
                "total": 1452,
                "entry": 907017,
                "entry_name": "Why Always Me"
            },
            {
                "id": 6588759,
                "event_total": 61,
                "player_name": "Jack Power",
                "rank": 40,
                "last_rank": 26,
                "rank_sort": 40,
                "total": 1452,
                "entry": 1245530,
                "entry_name": "Powers Prancers"
            },
            {
                "id": 1668472,
                "event_total": 86,
                "player_name": "Dominic Smith",
                "rank": 41,
                "last_rank": 112,
                "rank_sort": 41,
                "total": 1452,
                "entry": 326787,
                "entry_name": "Conte your chickens"
            },
            {
                "id": 2833056,
                "event_total": 77,
                "player_name": "Charlie Boyle",
                "rank": 42,
                "last_rank": 80,
                "rank_sort": 42,
                "total": 1451,
                "entry": 552580,
                "entry_name": "Haaland Oates"
            },
            {
                "id": 13194752,
                "event_total": 80,
                "player_name": "Hopper Delaney",
                "rank": 43,
                "last_rank": 106,
                "rank_sort": 43,
                "total": 1450,
                "entry": 2385553,
                "entry_name": "Hopsturs"
            },
            {
                "id": 34261444,
                "event_total": 56,
                "player_name": "Mark O'Meara",
                "rank": 44,
                "last_rank": 20,
                "rank_sort": 44,
                "total": 1449,
                "entry": 5252405,
                "entry_name": "Change Name"
            },
            {
                "id": 5190208,
                "event_total": 77,
                "player_name": "nathan mc ivor",
                "rank": 45,
                "last_rank": 89,
                "rank_sort": 45,
                "total": 1449,
                "entry": 990882,
                "entry_name": "Maz Magicians"
            },
            {
                "id": 23783693,
                "event_total": 60,
                "player_name": "James Clancy",
                "rank": 46,
                "last_rank": 28,
                "rank_sort": 46,
                "total": 1448,
                "entry": 3929365,
                "entry_name": "The Trashers"
            },
            {
                "id": 48313403,
                "event_total": 72,
                "player_name": "Mike Wood",
                "rank": 47,
                "last_rank": 72,
                "rank_sort": 47,
                "total": 1448,
                "entry": 6752489,
                "entry_name": "Kyogo Betweens"
            },
            {
                "id": 6589952,
                "event_total": 71,
                "player_name": "Daire OBrien",
                "rank": 48,
                "last_rank": 65,
                "rank_sort": 48,
                "total": 1448,
                "entry": 1245646,
                "entry_name": "Flying without Mings"
            },
            {
                "id": 34613056,
                "event_total": 47,
                "player_name": "Damien Crowe",
                "rank": 49,
                "last_rank": 13,
                "rank_sort": 49,
                "total": 1447,
                "entry": 5282130,
                "entry_name": "crowbarstars"
            },
            {
                "id": 39126465,
                "event_total": 86,
                "player_name": "Stuart O'Donnell",
                "rank": 50,
                "last_rank": 162,
                "rank_sort": 50,
                "total": 1447,
                "entry": 5688780,
                "entry_name": "Salt & Pepe"
            }
        ]
    }
}