{
    "new_entries": {
        "has_next": false,
        "page": 1,
        "results": []
    },
    "last_updated_data": "2023-02-15T22:33:07Z",
    "league": {
        "id": 2385997,
        "name": "Second Chance",
        "created": "2022-12-13T09:32:14.682834Z",
        "closed": false,
        "max_entries": null,
        "league_type": "s",
        "scoring": "c",
        "admin_entry": null,
        "start_event": 17,
        "code_privacy": "p",
        "has_cup": false,
        "cup_league": null,
        "rank": null
    },
    "standings": {
        "has_next": true,
        "page": 1,
        "results": [
            {
                "id": 81237431,
                "event_total": 87,
                "player_name": "Amr Rady",
                "rank": 1,
                "last_rank": 3,
                "rank_sort": 1,
                "total": 661,
                "entry": 2142352,
                "entry_name": "Mora"
            },
            {
                "id": 79822679,
                "event_total": 74,
                "player_name": "Robert Šokčević",
                "rank": 2,
                "last_rank": 1,
                "rank_sort": 2,
                "total": 657,
                "entry": 749840,
                "entry_name": "Combi28"
            },
            {
                "id": 80335085,
                "event_total": 77,
                "player_name": "Jay 17",
                "rank": 3,
                "last_rank": 2,
                "rank_sort": 3,
                "total": 655,
                "entry": 1248864,
                "entry_name": "Ground Zero"
            },
            {
                "id": 79744916,
                "event_total": 88,
                "player_name": "Andri Diego",
                "rank": 4,
                "last_rank": 12,
                "rank_sort": 4,
                "total": 645,
                "entry": 674557,
                "entry_name": "diego11"
            },
            {
                "id": 82635285,
                "event_total": 96,
                "player_name": "Shabab Hossain",
                "rank": 5,
                "last_rank": 52,
                "rank_sort": 5,
                "total": 645,
                "entry": 3546315,
                "entry_name": "Wenger's XI"
            },
            {
                "id": 79139563,
                "event_total": 87,
                "player_name": "Patryk Krawczyk",
                "rank": 6,
                "last_rank": 17,
                "rank_sort": 6,
                "total": 642,
                "entry": 87395,
                "entry_name": "FutureAudiCupWinners"
            },
            {
                "id": 84142972,
                "event_total": 77,
                "player_name": "Shahrul HA",
                "rank": 7,
                "last_rank": 6,
                "rank_sort": 7,
                "total": 641,
                "entry": 5051804,
                "entry_name": "SRr FT"
            },
            {
                "id": 79426448,
                "event_total": 86,
                "player_name": "Adarsh Naroo",
                "rank": 8,
                "last_rank": 19,
                "rank_sort": 8,
                "total": 641,
                "entry": 366585,
                "entry_name": "Nigersaurus FC"
            },
            {
                "id": 79607972,
                "event_total": 105,
                "player_name": "Michael christodoulou",
                "rank": 9,
                "last_rank": 256,
                "rank_sort": 9,
                "total": 641,
                "entry": 543957,
                "entry_name": "The Eleventh Hag"
            },
            {
                "id": 79456339,
                "event_total": 100,
                "player_name": "T Ogun",
                "rank": 10,
                "last_rank": 60,
                "rank_sort": 10,
                "total": 640,
                "entry": 395848,
                "entry_name": "Taiye O"
            },
            {
                "id": 79699126,
                "event_total": 98,
                "player_name": "Mohamad Almutairi",
                "rank": 11,
                "last_rank": 76,
                "rank_sort": 11,
                "total": 640,
                "entry": 630794,
                "entry_name": "mohamad"
            },
            {
                "id": 87047274,
                "event_total": 96,
                "player_name": "Tommy Knudsen",
                "rank": 12,
                "last_rank": 61,
                "rank_sort": 12,
                "total": 639,
                "entry": 7962391,
                "entry_name": "Skarvet United"
            },
            {
                "id": 81997370,
                "event_total": 86,
                "player_name": "Roy Jespersen",
                "rank": 13,
                "last_rank": 28,
                "rank_sort": 13,
                "total": 639,
                "entry": 2906284,
                "entry_name": "Lillepull"
            },
            {
                "id": 79105757,
                "event_total": 75,
                "player_name": "youssef Hossam",
                "rank": 14,
                "last_rank": 8,
                "rank_sort": 14,
                "total": 638,
                "entry": 54787,
                "entry_name": "Zamalek FC"
            },
            {
                "id": 79564932,
                "event_total": 115,
                "player_name": "Ahmed Elnoby(✌️??الكينج)",
                "rank": 15,
                "last_rank": 1460,
                "rank_sort": 15,
                "total": 637,
                "entry": 501882,
                "entry_name": "عبد الستار صبري�⚽�"
            },
            {
                "id": 79574375,
                "event_total": 110,
                "player_name": "JoE Pitiphat",
                "rank": 16,
                "last_rank": 467,
                "rank_sort": 16,
                "total": 637,
                "entry": 511085,
                "entry_name": "BathLover Club"
            },
            {
                "id": 81238025,
                "event_total": 89,
                "player_name": "Shaun Cook",
                "rank": 17,
                "last_rank": 38,
                "rank_sort": 17,
                "total": 637,
                "entry": 2142948,
                "entry_name": "SCB LTD"
            },
            {
                "id": 79062086,
                "event_total": 99,
                "player_name": "Zéner Caro",
                "rank": 18,
                "last_rank": 218,
                "rank_sort": 18,
                "total": 636,
                "entry": 12334,
                "entry_name": "Green Ribbon"
            },
            {
                "id": 79273723,
                "event_total": 87,
                "player_name": "Oliver Williams",
                "rank": 19,
                "last_rank": 54,
                "rank_sort": 19,
                "total": 636,
                "entry": 217574,
                "entry_name": "Not MikeDean Forever"
            },
            {
                "id": 79055745,
                "event_total": 99,
                "player_name": "Dexter Ferreira",
                "rank": 20,
                "last_rank": 232,
                "rank_sort": 20,
                "total": 635,
                "entry": 6203,
                "entry_name": "PepWeTrust"
            },
            {
                "id": 82444028,
                "event_total": 94,
                "player_name": "Andrew Hill",
                "rank": 21,
                "last_rank": 158,
                "rank_sort": 21,
                "total": 634,
                "entry": 3354791,
                "entry_name": "Haalandaise Sauce"
            },
            {
                "id": 79095617,
                "event_total": 99,
                "player_name": "Mick W",
                "rank": 22,
                "last_rank": 289,
                "rank_sort": 22,
                "total": 634,
                "entry": 44907,
                "entry_name": "Not Dead Yety"
            },
            {
                "id": 80707023,
                "event_total": 78,
                "player_name": "John Ruben",
                "rank": 23,
                "last_rank": 15,
                "rank_sort": 23,
                "total": 634,
                "entry": 1615787,
                "entry_name": "RubenBall Fc"
            },
            {
                "id": 81550214,
                "event_total": 84,
                "player_name": "Dan Wiseman",
                "rank": 24,
                "last_rank": 24,
                "rank_sort": 24,
                "total": 634,
                "entry": 2456178,
                "entry_name": "Pfizer Chiefs"
            },
            {
                "id": 84298837,
                "event_total": 98,
                "player_name": "Amet Yahaya",
                "rank": 25,
                "last_rank": 264,
                "rank_sort": 25,
                "total": 633,
                "entry": 5206442,
                "entry_name": "AY"
            },
            {
                "id": 79681525,
                "event_total": 86,
                "player_name": "Budiman Zhong",
                "rank": 26,
                "last_rank": 41,
                "rank_sort": 26,
                "total": 633,
                "entry": 7442874,
                "entry_name": "DarkBEB"
            },
            {
                "id": 81655175,
                "event_total": 66,
                "player_name": "Kalpak Berry",
                "rank": 27,
                "last_rank": 4,
                "rank_sort": 27,
                "total": 633,
                "entry": 2561678,
                "entry_name": "JuanMataDi"
            },
            {
                "id": 80511651,
                "event_total": 117,
                "player_name": "Amine Bourghida",
                "rank": 28,
                "last_rank": 3049,
                "rank_sort": 28,
                "total": 632,
                "entry": 1423178,
                "entry_name": "Amine Bourghida"
            },
            {
                "id": 80260567,
                "event_total": 94,
                "player_name": "Johnny Li",
                "rank": 29,
                "last_rank": 183,
                "rank_sort": 29,
                "total": 632,
                "entry": 1175568,
                "entry_name": "香港HK"
            },
            {
                "id": 79635429,
                "event_total": 76,
                "player_name": "MH Maali",
                "rank": 30,
                "last_rank": 14,
                "rank_sort": 30,
                "total": 632,
                "entry": 570868,
                "entry_name": "#MahsaAmini"
            },
            {
                "id": 79656881,
                "event_total": 82,
                "player_name": "James McCunn",
                "rank": 31,
                "last_rank": 47,
                "rank_sort": 31,
                "total": 632,
                "entry": 591796,
                "entry_name": "Glipton Grasshoppers"
            },
            {
                "id": 79113656,
                "event_total": 85,
                "player_name": "Trung Luong",
                "rank": 32,
                "last_rank": 69,
                "rank_sort": 32,
                "total": 632,
                "entry": 62434,
                "entry_name": "TrungDZ"
            },
            {
                "id": 79908895,
                "event_total": 92,
                "player_name": "Raymond Scott",
                "rank": 33,
                "last_rank": 168,
                "rank_sort": 33,
                "total": 632,
                "entry": 833196,
                "entry_name": "Pique Blinders FC"
            },
            {
                "id": 90147876,
                "event_total": 73,
                "player_name": "Sidahmed Ouargui",
                "rank": 34,
                "last_rank": 11,
                "rank_sort": 34,
                "total": 631,
                "entry": 10948437,
                "entry_name": "sid ahmed fantasy"
            },
            {
                "id": 79920019,
                "event_total": 86,
                "player_name": "Hassan Hassan",
                "rank": 35,
                "last_rank": 79,
                "rank_sort": 35,
                "total": 631,
                "entry": 843982,
                "entry_name": "MAZDA"
            },
            {
                "id": 86702720,
                "event_total": 77,
                "player_name": "Nicolai Smith",
                "rank": 36,
                "last_rank": 22,
                "rank_sort": 36,
                "total": 631,
                "entry": 7617260,
                "entry_name": "Smid FC"
            },
            {
                "id": 80358730,
                "event_total": 89,
                "player_name": "Mohamed Roshdy",
                "rank": 36,
                "last_rank": 72,
                "rank_sort": 37,
                "total": 631,
                "entry": 1272220,
                "entry_name": "MadriDista _10"
            },
            {
                "id": 79349839,
                "event_total": 92,
                "player_name": "Dan Dashey",
                "rank": 38,
                "last_rank": 174,
                "rank_sort": 38,
                "total": 631,
                "entry": 291737,
                "entry_name": "pain in dias"
            },
            {
                "id": 84361636,
                "event_total": 82,
                "player_name": "Fouad Brs",
                "rank": 38,
                "last_rank": 50,
                "rank_sort": 39,
                "total": 631,
                "entry": 5268845,
                "entry_name": "Fouad brs"
            },
            {
                "id": 79200867,
                "event_total": 88,
                "player_name": "Akram Younes",
                "rank": 40,
                "last_rank": 62,
                "rank_sort": 40,
                "total": 631,
                "entry": 146755,
                "entry_name": "Akram ALG"
            },
            {
                "id": 80231857,
                "event_total": 104,
                "player_name": "mohamed mohamed abbas",
                "rank": 41,
                "last_rank": 840,
                "rank_sort": 41,
                "total": 631,
                "entry": 1147268,
                "entry_name": "Top1"
            },
            {
                "id": 85254678,
                "event_total": 75,
                "player_name": "Jallali Ismail",
                "rank": 42,
                "last_rank": 16,
                "rank_sort": 42,
                "total": 630,
                "entry": 6162837,
                "entry_name": "M.r jallali"
            },
            {
                "id": 79240233,
                "event_total": 99,
                "player_name": "سامح (حساب مؤقت)",
                "rank": 43,
                "last_rank": 457,
                "rank_sort": 43,
                "total": 630,
                "entry": 184994,
                "entry_name": "اما نشوف اخرتها ايه"
            },
            {
                "id": 81199564,
                "event_total": 97,
                "player_name": "Joshua Spencer",
                "rank": 44,
                "last_rank": 211,
                "rank_sort": 44,
                "total": 630,
                "entry": 2104473,
                "entry_name": "Spencer FC"
            },
            {
                "id": 82586646,
                "event_total": 63,
                "player_name": "Tom Willimett",
                "rank": 45,
                "last_rank": 5,
                "rank_sort": 45,
                "total": 630,
                "entry": 3497616,
                "entry_name": "Large Tom’s Lads"
            },
            {
                "id": 79405760,
                "event_total": 87,
                "player_name": "Harry Gibson",
                "rank": 46,
                "last_rank": 65,
                "rank_sort": 46,
                "total": 630,
                "entry": 346336,
                "entry_name": "Offensive Name"
            },
            {
                "id": 79053287,
                "event_total": 107,
                "player_name": "Anders Kristoffersen",
                "rank": 47,
                "last_rank": 848,
                "rank_sort": 47,
                "total": 630,
                "entry": 11330,
                "entry_name": "Honest Penaldo fan"
            },
            {
                "id": 82835074,
                "event_total": 78,
                "player_name": "Stephen MacElarney",
                "rank": 48,
                "last_rank": 39,
                "rank_sort": 48,
                "total": 629,
                "entry": 3746123,
                "entry_name": "Macatacs"
            },
            {
                "id": 83830591,
                "event_total": 93,
                "player_name": "Will Ledger",
                "rank": 49,
                "last_rank": 231,
                "rank_sort": 49,
                "total": 629,
                "entry": 4740110,
                "entry_name": "Saka Taters"
            },
            {
                "id": 80937187,
                "event_total": 111,
                "player_name": "Jack Chatten",
                "rank": 50,
                "last_rank": 2283,
                "rank_sort": 50,
                "total": 629,
                "entry": 1842892,
                "entry_name": "Curious Jorginho"
            }
        ]
    }
}