{
    "new_entries": {
        "has_next": false,
        "page": 1,
        "results": []
    },
    "last_updated_data": "2023-02-12T20:24:03Z",
    "league": {
        "id": 261,
        "name": "England",
        "created": "2022-07-05T09:52:00.337947Z",
        "closed": false,
        "max_entries": null,
        "league_type": "s",
        "scoring": "c",
        "admin_entry": null,
        "start_event": 1,
        "code_privacy": "p",
        "has_cup": true,
        "cup_league": 2381814,
        "rank": null
    },
    "standings": {
        "has_next": true,
        "page": 1,
        "results": [
            {
                "id": 3660808,
                "event_total": 39,
                "player_name": "Andy Thompson",
                "rank": 1,
                "last_rank": 1,
                "rank_sort": 1,
                "total": 1594,
                "entry": 707059,
                "entry_name": "The Poindexters"
            },
            {
                "id": 4135,
                "event_total": 55,
                "player_name": "Zak Bickerstaffe",
                "rank": 2,
                "last_rank": 2,
                "rank_sort": 2,
                "total": 1588,
                "entry": 1052,
                "entry_name": "Dude where's my Sarr"
            },
            {
                "id": 6408753,
                "event_total": 74,
                "player_name": "Daniel Hart",
                "rank": 3,
                "last_rank": 16,
                "rank_sort": 3,
                "total": 1583,
                "entry": 1213511,
                "entry_name": "JoelinToon"
            },
            {
                "id": 4125357,
                "event_total": 84,
                "player_name": "dan branch",
                "rank": 4,
                "last_rank": 48,
                "rank_sort": 4,
                "total": 1581,
                "entry": 794149,
                "entry_name": "Changed Name"
            },
            {
                "id": 34019016,
                "event_total": 67,
                "player_name": "Dan Carlick",
                "rank": 5,
                "last_rank": 13,
                "rank_sort": 5,
                "total": 1578,
                "entry": 5222415,
                "entry_name": "Welsh Warriors"
            },
            {
                "id": 968230,
                "event_total": 47,
                "player_name": "Nancy Russell",
                "rank": 6,
                "last_rank": 3,
                "rank_sort": 6,
                "total": 1574,
                "entry": 186282,
                "entry_name": "Flaming Galahs"
            },
            {
                "id": 4662922,
                "event_total": 45,
                "player_name": "Chris Arnold",
                "rank": 7,
                "last_rank": 4,
                "rank_sort": 7,
                "total": 1572,
                "entry": 892511,
                "entry_name": "Boom Xhakalaka"
            },
            {
                "id": 17993805,
                "event_total": 70,
                "player_name": "Scott Matafwali",
                "rank": 8,
                "last_rank": 32,
                "rank_sort": 8,
                "total": 1571,
                "entry": 3083629,
                "entry_name": "Kaba FC"
            },
            {
                "id": 9907724,
                "event_total": 58,
                "player_name": "James Fulton",
                "rank": 9,
                "last_rank": 12,
                "rank_sort": 9,
                "total": 1570,
                "entry": 1838566,
                "entry_name": "Bowen Arrow"
            },
            {
                "id": 84394,
                "event_total": 49,
                "player_name": "mark bleakley",
                "rank": 10,
                "last_rank": 5,
                "rank_sort": 10,
                "total": 1566,
                "entry": 17775,
                "entry_name": "semi enders"
            },
            {
                "id": 7663363,
                "event_total": 60,
                "player_name": "Nick Burke",
                "rank": 11,
                "last_rank": 24,
                "rank_sort": 11,
                "total": 1564,
                "entry": 1440714,
                "entry_name": "Burkamp FC"
            },
            {
                "id": 6210344,
                "event_total": 44,
                "player_name": "Ian Hill",
                "rank": 12,
                "last_rank": 6,
                "rank_sort": 12,
                "total": 1563,
                "entry": 1176411,
                "entry_name": "Ray The Otter"
            },
            {
                "id": 4004680,
                "event_total": 49,
                "player_name": "Mark Harrison",
                "rank": 13,
                "last_rank": 11,
                "rank_sort": 13,
                "total": 1563,
                "entry": 770806,
                "entry_name": "Stranger ‘ Ings"
            },
            {
                "id": 37633249,
                "event_total": 47,
                "player_name": "Oliver Walsh",
                "rank": 14,
                "last_rank": 10,
                "rank_sort": 14,
                "total": 1562,
                "entry": 5540256,
                "entry_name": "DontLookBackInElanga"
            },
            {
                "id": 11977579,
                "event_total": 54,
                "player_name": "Sophie Tomlinson",
                "rank": 15,
                "last_rank": 18,
                "rank_sort": 15,
                "total": 1562,
                "entry": 2183448,
                "entry_name": "dack to the future"
            },
            {
                "id": 2731627,
                "event_total": 59,
                "player_name": "James Lee",
                "rank": 16,
                "last_rank": 28,
                "rank_sort": 16,
                "total": 1562,
                "entry": 533457,
                "entry_name": "Steve will be 3rd"
            },
            {
                "id": 12626652,
                "event_total": 56,
                "player_name": "Tom Knowles",
                "rank": 17,
                "last_rank": 20,
                "rank_sort": 17,
                "total": 1561,
                "entry": 2289998,
                "entry_name": "Tom Knowles"
            },
            {
                "id": 25797482,
                "event_total": 44,
                "player_name": "Matt Harris",
                "rank": 18,
                "last_rank": 9,
                "rank_sort": 18,
                "total": 1561,
                "entry": 4220890,
                "entry_name": "The Haaland Fling"
            },
            {
                "id": 23628129,
                "event_total": 58,
                "player_name": "paul burkitt",
                "rank": 18,
                "last_rank": 26,
                "rank_sort": 19,
                "total": 1561,
                "entry": 3908543,
                "entry_name": "Retford Utd"
            },
            {
                "id": 4909995,
                "event_total": 56,
                "player_name": "will scull",
                "rank": 20,
                "last_rank": 23,
                "rank_sort": 20,
                "total": 1560,
                "entry": 939608,
                "entry_name": "AYEW READY FOR LOVE"
            },
            {
                "id": 3158888,
                "event_total": 46,
                "player_name": "Kevin Newton",
                "rank": 21,
                "last_rank": 7,
                "rank_sort": 21,
                "total": 1560,
                "entry": 611990,
                "entry_name": "Annette"
            },
            {
                "id": 2187174,
                "event_total": 62,
                "player_name": "Michael Potts",
                "rank": 22,
                "last_rank": 44,
                "rank_sort": 22,
                "total": 1560,
                "entry": 427720,
                "entry_name": "Lads on Toure"
            },
            {
                "id": 18212109,
                "event_total": 57,
                "player_name": "Oliver Bassett",
                "rank": 23,
                "last_rank": 25,
                "rank_sort": 23,
                "total": 1560,
                "entry": 3117355,
                "entry_name": "Bassett's All Sorts"
            },
            {
                "id": 15283788,
                "event_total": 42,
                "player_name": "Ike Martin",
                "rank": 24,
                "last_rank": 8,
                "rank_sort": 24,
                "total": 1559,
                "entry": 2658079,
                "entry_name": "MartsXI"
            },
            {
                "id": 51942839,
                "event_total": 63,
                "player_name": "Amit Nathwani",
                "rank": 25,
                "last_rank": 54,
                "rank_sort": 25,
                "total": 1559,
                "entry": 7175795,
                "entry_name": "One Hit Wonders"
            },
            {
                "id": 10963940,
                "event_total": 56,
                "player_name": "Lee Parry",
                "rank": 26,
                "last_rank": 29,
                "rank_sort": 26,
                "total": 1558,
                "entry": 2016635,
                "entry_name": "Parry Snr"
            },
            {
                "id": 190037,
                "event_total": 56,
                "player_name": "Chris Barnes",
                "rank": 27,
                "last_rank": 31,
                "rank_sort": 27,
                "total": 1557,
                "entry": 36421,
                "entry_name": "JustHereForTheCup FC"
            },
            {
                "id": 11946258,
                "event_total": 56,
                "player_name": "Kieran Wilson",
                "rank": 28,
                "last_rank": 35,
                "rank_sort": 28,
                "total": 1556,
                "entry": 2178897,
                "entry_name": "Hakuna Juan Mata"
            },
            {
                "id": 3465212,
                "event_total": 56,
                "player_name": "Jack Ballinger",
                "rank": 29,
                "last_rank": 36,
                "rank_sort": 29,
                "total": 1556,
                "entry": 669222,
                "entry_name": "Backstreet Moyes"
            },
            {
                "id": 28841753,
                "event_total": 55,
                "player_name": "Nigel Sharpe",
                "rank": 30,
                "last_rank": 34,
                "rank_sort": 30,
                "total": 1556,
                "entry": 4538819,
                "entry_name": "Foxes glory"
            },
            {
                "id": 4792913,
                "event_total": 56,
                "player_name": "Jake Naylor",
                "rank": 31,
                "last_rank": 39,
                "rank_sort": 31,
                "total": 1555,
                "entry": 917153,
                "entry_name": "Chopper FC"
            },
            {
                "id": 7504952,
                "event_total": 49,
                "player_name": "Andy Friend",
                "rank": 32,
                "last_rank": 21,
                "rank_sort": 32,
                "total": 1554,
                "entry": 1412707,
                "entry_name": "Friend United"
            },
            {
                "id": 7544549,
                "event_total": 47,
                "player_name": "Oliver Harding",
                "rank": 33,
                "last_rank": 14,
                "rank_sort": 33,
                "total": 1554,
                "entry": 1419686,
                "entry_name": "A Saudi Squad"
            },
            {
                "id": 27870705,
                "event_total": 59,
                "player_name": "Diane Edmund",
                "rank": 34,
                "last_rank": 63,
                "rank_sort": 34,
                "total": 1552,
                "entry": 4450643,
                "entry_name": "Sonny Side Up"
            },
            {
                "id": 30708636,
                "event_total": 54,
                "player_name": "Dan Crowe",
                "rank": 35,
                "last_rank": 49,
                "rank_sort": 35,
                "total": 1551,
                "entry": 4797800,
                "entry_name": "Drawonce FC"
            },
            {
                "id": 52163947,
                "event_total": 49,
                "player_name": "Ian Marson",
                "rank": 36,
                "last_rank": 19,
                "rank_sort": 36,
                "total": 1551,
                "entry": 7202092,
                "entry_name": "Beeches Rovers"
            },
            {
                "id": 16602922,
                "event_total": 55,
                "player_name": "Pat Ravenhall",
                "rank": 37,
                "last_rank": 56,
                "rank_sort": 37,
                "total": 1551,
                "entry": 2861817,
                "entry_name": "Haven't Got A Clucas"
            },
            {
                "id": 18010163,
                "event_total": 63,
                "player_name": "Claire Ashley",
                "rank": 38,
                "last_rank": 105,
                "rank_sort": 38,
                "total": 1550,
                "entry": 3086428,
                "entry_name": "Clazzas Crew"
            },
            {
                "id": 13944939,
                "event_total": 62,
                "player_name": "Tom Whitaker",
                "rank": 39,
                "last_rank": 106,
                "rank_sort": 39,
                "total": 1549,
                "entry": 2511575,
                "entry_name": "GEORDIELAND"
            },
            {
                "id": 8866100,
                "event_total": 61,
                "player_name": "Keith Phillimore",
                "rank": 40,
                "last_rank": 97,
                "rank_sort": 40,
                "total": 1549,
                "entry": 1660242,
                "entry_name": "Haaland’s not baad"
            },
            {
                "id": 7940980,
                "event_total": 61,
                "player_name": "Elliot Phoenix",
                "rank": 41,
                "last_rank": 72,
                "rank_sort": 41,
                "total": 1549,
                "entry": 1494497,
                "entry_name": "Haalandaise Sauce"
            },
            {
                "id": 19059453,
                "event_total": 59,
                "player_name": "Joanne Hales-Owen",
                "rank": 42,
                "last_rank": 91,
                "rank_sort": 42,
                "total": 1548,
                "entry": 3243627,
                "entry_name": "Twist Tigers"
            },
            {
                "id": 9078090,
                "event_total": 52,
                "player_name": "paul williams",
                "rank": 43,
                "last_rank": 55,
                "rank_sort": 43,
                "total": 1548,
                "entry": 1698142,
                "entry_name": "Berlingo Haalaland"
            },
            {
                "id": 37967865,
                "event_total": 66,
                "player_name": "Chris Taylor",
                "rank": 44,
                "last_rank": 183,
                "rank_sort": 44,
                "total": 1547,
                "entry": 5572832,
                "entry_name": "Saka Saka"
            },
            {
                "id": 8219973,
                "event_total": 50,
                "player_name": "James Askwith",
                "rank": 45,
                "last_rank": 51,
                "rank_sort": 45,
                "total": 1547,
                "entry": 1546225,
                "entry_name": "Blades"
            },
            {
                "id": 14400895,
                "event_total": 44,
                "player_name": "Les Helling",
                "rank": 46,
                "last_rank": 27,
                "rank_sort": 46,
                "total": 1547,
                "entry": 2573955,
                "entry_name": "A big lump upfront"
            },
            {
                "id": 12644483,
                "event_total": 58,
                "player_name": "Sam Oakley",
                "rank": 47,
                "last_rank": 97,
                "rank_sort": 47,
                "total": 1546,
                "entry": 2293064,
                "entry_name": "Frenkie Tarr"
            },
            {
                "id": 25390307,
                "event_total": 67,
                "player_name": "Chris Cole",
                "rank": 48,
                "last_rank": 213,
                "rank_sort": 48,
                "total": 1546,
                "entry": 4158259,
                "entry_name": "Fiorentina Turner"
            },
            {
                "id": 9752389,
                "event_total": 47,
                "player_name": "Charlie Lander",
                "rank": 48,
                "last_rank": 38,
                "rank_sort": 49,
                "total": 1546,
                "entry": 1811364,
                "entry_name": "Daddy the Baddy"
            },
            {
                "id": 4663291,
                "event_total": 56,
                "player_name": "Paul Camp",
                "rank": 48,
                "last_rank": 82,
                "rank_sort": 50,
                "total": 1546,
                "entry": 892581,
                "entry_name": "Mitros on Fire!"
            }
        ]
    }
}