{
    "new_entries": {
        "has_next": false,
        "page": 1,
        "results": []
    },
    "last_updated_data": "2023-02-05T20:34:06Z",
    "league": {
        "id": 314,
        "name": "Overall",
        "created": "2022-07-05T09:52:00.763442Z",
        "closed": false,
        "max_entries": null,
        "league_type": "s",
        "scoring": "c",
        "admin_entry": null,
        "start_event": 1,
        "code_privacy": "p",
        "has_cup": true,
        "cup_league": 2371740,
        "rank": null
    },
    "standings": {
        "has_next": true,
        "page": 1,
        "results": [
            {
                "id": 17221915,
                "event_total": 68,
                "player_name": "Jesper Karup",
                "rank": 1,
                "last_rank": 1,
                "rank_sort": 1,
                "total": 1539,
                "entry": 2960212,
                "entry_name": "Cousin Crass"
            },
            {
                "id": 2902107,
                "event_total": 60,
                "player_name": "lior bason",
                "rank": 2,
                "last_rank": 2,
                "rank_sort": 2,
                "total": 1528,
                "entry": 565111,
                "entry_name": "micnic pizza"
            },
            {
                "id": 552118,
                "event_total": 85,
                "player_name": "Ragnar Sandin",
                "rank": 3,
                "last_rank": 13,
                "rank_sort": 3,
                "total": 1526,
                "entry": 104593,
                "entry_name": "ViDeBa"
            },
            {
                "id": 5453091,
                "event_total": 66,
                "player_name": "Birkir Snær Sigurðsson",
                "rank": 4,
                "last_rank": 4,
                "rank_sort": 4,
                "total": 1523,
                "entry": 1038763,
                "entry_name": "Stjórnin"
            },
            {
                "id": 3688935,
                "event_total": 69,
                "player_name": "Ivan Capko",
                "rank": 5,
                "last_rank": 5,
                "rank_sort": 5,
                "total": 1522,
                "entry": 712202,
                "entry_name": "FK Karaguz"
            },
            {
                "id": 3660805,
                "event_total": 78,
                "player_name": "Andy Thompson",
                "rank": 6,
                "last_rank": 12,
                "rank_sort": 6,
                "total": 1519,
                "entry": 707059,
                "entry_name": "The Poindexters"
            },
            {
                "id": 37063904,
                "event_total": 80,
                "player_name": "Abhishek Kumar Singh",
                "rank": 7,
                "last_rank": 24,
                "rank_sort": 7,
                "total": 1516,
                "entry": 5489067,
                "entry_name": "abhi11"
            },
            {
                "id": 52451232,
                "event_total": 77,
                "player_name": "Ambjörn Ingvaldson",
                "rank": 8,
                "last_rank": 16,
                "rank_sort": 8,
                "total": 1515,
                "entry": 7235781,
                "entry_name": "Fantasybjörn"
            },
            {
                "id": 812163,
                "event_total": 77,
                "player_name": "Mohamed Almudahka",
                "rank": 9,
                "last_rank": 20,
                "rank_sort": 9,
                "total": 1514,
                "entry": 155085,
                "entry_name": "Huge7amoodqtr"
            },
            {
                "id": 10456872,
                "event_total": 56,
                "player_name": "Craig Robertson",
                "rank": 10,
                "last_rank": 3,
                "rank_sort": 10,
                "total": 1514,
                "entry": 1929516,
                "entry_name": "Robbies Rangers"
            },
            {
                "id": 43471174,
                "event_total": 69,
                "player_name": "Thomas Espevik",
                "rank": 11,
                "last_rank": 10,
                "rank_sort": 11,
                "total": 1513,
                "entry": 6149709,
                "entry_name": "No Salah"
            },
            {
                "id": 4133,
                "event_total": 99,
                "player_name": "Zak Bickerstaffe",
                "rank": 12,
                "last_rank": 126,
                "rank_sort": 12,
                "total": 1510,
                "entry": 1052,
                "entry_name": "Dude where's my Sarr"
            },
            {
                "id": 50604982,
                "event_total": 67,
                "player_name": "Thomas Foged",
                "rank": 13,
                "last_rank": 11,
                "rank_sort": 13,
                "total": 1509,
                "entry": 7018608,
                "entry_name": "Finansfyrsterne"
            },
            {
                "id": 968227,
                "event_total": 64,
                "player_name": "Nancy Russell",
                "rank": 14,
                "last_rank": 9,
                "rank_sort": 14,
                "total": 1508,
                "entry": 186282,
                "entry_name": "Flaming Galahs"
            },
            {
                "id": 32916045,
                "event_total": 84,
                "player_name": "João Martins",
                "rank": 15,
                "last_rank": 44,
                "rank_sort": 15,
                "total": 1507,
                "entry": 5082995,
                "entry_name": "Xaimite +15"
            },
            {
                "id": 333445,
                "event_total": 92,
                "player_name": "Mohamed El Nahrawy",
                "rank": 16,
                "last_rank": 92,
                "rank_sort": 16,
                "total": 1507,
                "entry": 63790,
                "entry_name": "ReD WaVe"
            },
            {
                "id": 37226510,
                "event_total": 69,
                "player_name": "Damian Kemski",
                "rank": 17,
                "last_rank": 21,
                "rank_sort": 17,
                "total": 1506,
                "entry": 5502969,
                "entry_name": "Loko FC"
            },
            {
                "id": 15024519,
                "event_total": 73,
                "player_name": "Christopher Maguire",
                "rank": 18,
                "last_rank": 21,
                "rank_sort": 18,
                "total": 1506,
                "entry": 2633170,
                "entry_name": "greenlough11"
            },
            {
                "id": 15541014,
                "event_total": 52,
                "player_name": "Yaqoob 17 🇦🇪",
                "rank": 19,
                "last_rank": 6,
                "rank_sort": 19,
                "total": 1504,
                "entry": 2698631,
                "entry_name": "yaqoob"
            },
            {
                "id": 2283081,
                "event_total": 63,
                "player_name": "Isak Stjernen",
                "rank": 20,
                "last_rank": 15,
                "rank_sort": 20,
                "total": 1503,
                "entry": 446532,
                "entry_name": "Stjernen Masterclass"
            },
            {
                "id": 10422226,
                "event_total": 77,
                "player_name": "Rhydian Eldridge",
                "rank": 21,
                "last_rank": 39,
                "rank_sort": 21,
                "total": 1503,
                "entry": 1923454,
                "entry_name": "Team Name"
            },
            {
                "id": 34024034,
                "event_total": 65,
                "player_name": "Pieter van den Akker",
                "rank": 22,
                "last_rank": 18,
                "rank_sort": 22,
                "total": 1503,
                "entry": 5223109,
                "entry_name": "Ball on the Roof FC˚"
            },
            {
                "id": 1894001,
                "event_total": 88,
                "player_name": "Erik Rieber-Mohn",
                "rank": 23,
                "last_rank": 91,
                "rank_sort": 23,
                "total": 1503,
                "entry": 370837,
                "entry_name": "GGMU"
            },
            {
                "id": 84391,
                "event_total": 66,
                "player_name": "mark bleakley",
                "rank": 24,
                "last_rank": 23,
                "rank_sort": 24,
                "total": 1502,
                "entry": 17775,
                "entry_name": "semi enders"
            },
            {
                "id": 52303008,
                "event_total": 71,
                "player_name": "Mehdi Kandani",
                "rank": 25,
                "last_rank": 30,
                "rank_sort": 25,
                "total": 1501,
                "entry": 7218480,
                "entry_name": "crymeariver"
            },
            {
                "id": 56138055,
                "event_total": 60,
                "player_name": "Ben Cardwell",
                "rank": 26,
                "last_rank": 13,
                "rank_sort": 26,
                "total": 1501,
                "entry": 7673824,
                "entry_name": "Bensiktas"
            },
            {
                "id": 18542571,
                "event_total": 81,
                "player_name": "Magnus Hauser Nielsen",
                "rank": 27,
                "last_rank": 64,
                "rank_sort": 27,
                "total": 1500,
                "entry": 3164457,
                "entry_name": "Don H’s drenge"
            },
            {
                "id": 4662920,
                "event_total": 80,
                "player_name": "Chris Arnold",
                "rank": 28,
                "last_rank": 59,
                "rank_sort": 28,
                "total": 1500,
                "entry": 892511,
                "entry_name": "Boom Xhakalaka"
            },
            {
                "id": 4356355,
                "event_total": 61,
                "player_name": "Krzysztof Lach",
                "rank": 29,
                "last_rank": 17,
                "rank_sort": 29,
                "total": 1499,
                "entry": 836102,
                "entry_name": "AC Pajace"
            },
            {
                "id": 372764,
                "event_total": 50,
                "player_name": "Victor Fæster",
                "rank": 30,
                "last_rank": 7,
                "rank_sort": 30,
                "total": 1499,
                "entry": 71686,
                "entry_name": "vzfc"
            },
            {
                "id": 34017252,
                "event_total": 67,
                "player_name": "CHRISTIAN HOFSØY",
                "rank": 31,
                "last_rank": 28,
                "rank_sort": 31,
                "total": 1499,
                "entry": 5222182,
                "entry_name": "ditt lagnavn"
            },
            {
                "id": 19982906,
                "event_total": 80,
                "player_name": "Hassan AlAtrach",
                "rank": 32,
                "last_rank": 70,
                "rank_sort": 32,
                "total": 1499,
                "entry": 3375682,
                "entry_name": "Livoholics"
            },
            {
                "id": 22912939,
                "event_total": 71,
                "player_name": "pierce doody",
                "rank": 33,
                "last_rank": 33,
                "rank_sort": 33,
                "total": 1498,
                "entry": 3804859,
                "entry_name": "Ball hopping 11"
            },
            {
                "id": 518937,
                "event_total": 84,
                "player_name": "Andrew Shaw",
                "rank": 34,
                "last_rank": 124,
                "rank_sort": 34,
                "total": 1495,
                "entry": 98019,
                "entry_name": "No Mbeumo"
            },
            {
                "id": 11929387,
                "event_total": 59,
                "player_name": "Syakir Tay",
                "rank": 35,
                "last_rank": 25,
                "rank_sort": 35,
                "total": 1494,
                "entry": 2176043,
                "entry_name": "insyaaallah"
            },
            {
                "id": 43392890,
                "event_total": 62,
                "player_name": "Ørjan Johansen",
                "rank": 35,
                "last_rank": 27,
                "rank_sort": 36,
                "total": 1494,
                "entry": 6140174,
                "entry_name": "Wooden Palace"
            },
            {
                "id": 804377,
                "event_total": 80,
                "player_name": "Marko Kuručki",
                "rank": 37,
                "last_rank": 106,
                "rank_sort": 37,
                "total": 1493,
                "entry": 153505,
                "entry_name": "OnemanArmy1312"
            },
            {
                "id": 6210342,
                "event_total": 78,
                "player_name": "Ian Hill",
                "rank": 38,
                "last_rank": 90,
                "rank_sort": 38,
                "total": 1493,
                "entry": 1176411,
                "entry_name": "Ray The Otter"
            },
            {
                "id": 3781566,
                "event_total": 89,
                "player_name": "Ahmed Sabra",
                "rank": 38,
                "last_rank": 225,
                "rank_sort": 39,
                "total": 1493,
                "entry": 729140,
                "entry_name": "Sabra FC"
            },
            {
                "id": 4311934,
                "event_total": 71,
                "player_name": "Em Orgaga",
                "rank": 40,
                "last_rank": 51,
                "rank_sort": 40,
                "total": 1493,
                "entry": 828155,
                "entry_name": "Ffgall"
            },
            {
                "id": 34019014,
                "event_total": 64,
                "player_name": "Dan Carlick",
                "rank": 41,
                "last_rank": 32,
                "rank_sort": 41,
                "total": 1492,
                "entry": 5222415,
                "entry_name": "Welsh Warriors"
            },
            {
                "id": 5628806,
                "event_total": 81,
                "player_name": "Willie Lee",
                "rank": 42,
                "last_rank": 127,
                "rank_sort": 42,
                "total": 1492,
                "entry": 1070488,
                "entry_name": "DevilsUtd"
            },
            {
                "id": 21730559,
                "event_total": 84,
                "player_name": "Maciej Mikulewicz",
                "rank": 43,
                "last_rank": 163,
                "rank_sort": 43,
                "total": 1492,
                "entry": 3628958,
                "entry_name": "Fleszyk na longa"
            },
            {
                "id": 21466080,
                "event_total": 54,
                "player_name": "Mickey Mc Crink",
                "rank": 44,
                "last_rank": 19,
                "rank_sort": 44,
                "total": 1491,
                "entry": 3589482,
                "entry_name": "JESUS RICE"
            },
            {
                "id": 3158886,
                "event_total": 72,
                "player_name": "Kevin Newton",
                "rank": 45,
                "last_rank": 67,
                "rank_sort": 45,
                "total": 1491,
                "entry": 611990,
                "entry_name": "Annette"
            },
            {
                "id": 15282157,
                "event_total": 80,
                "player_name": "toby mcfarlane",
                "rank": 46,
                "last_rank": 120,
                "rank_sort": 46,
                "total": 1491,
                "entry": 2657830,
                "entry_name": "Snerkle Perkle FC"
            },
            {
                "id": 7496852,
                "event_total": 72,
                "player_name": "Петър Матански",
                "rank": 47,
                "last_rank": 71,
                "rank_sort": 47,
                "total": 1490,
                "entry": 1411317,
                "entry_name": "1912"
            },
            {
                "id": 15283786,
                "event_total": 69,
                "player_name": "Ike Martin",
                "rank": 48,
                "last_rank": 52,
                "rank_sort": 48,
                "total": 1490,
                "entry": 2658079,
                "entry_name": "MartsXI"
            },
            {
                "id": 25797480,
                "event_total": 79,
                "player_name": "Matt Harris",
                "rank": 49,
                "last_rank": 122,
                "rank_sort": 49,
                "total": 1490,
                "entry": 4220890,
                "entry_name": "The Haaland Fling"
            },
            {
                "id": 26507216,
                "event_total": 69,
                "player_name": "Ivan Todosijevic",
                "rank": 50,
                "last_rank": 42,
                "rank_sort": 50,
                "total": 1489,
                "entry": 4300512,
                "entry_name": "Guzonj@"
            }
        ]
    }
}