{
    "new_entries": {
        "has_next": false,
        "page": 1,
        "results": []
    },
    "last_updated_data": "2023-02-05T20:34:06Z",
    "league": {
        "id": 4,
        "name": "Brentford",
        "created": "2022-07-05T09:51:58.235859Z",
        "closed": false,
        "max_entries": null,
        "league_type": "s",
        "scoring": "c",
        "admin_entry": null,
        "start_event": 1,
        "code_privacy": "p",
        "has_cup": true,
        "cup_league": null,
        "rank": null
    },
    "standings": {
        "has_next": true,
        "page": 1,
        "results": [
            {
                "id": 19145476,
                "event_total": 59,
                "player_name": "Michael Winrow",
                "rank": 1,
                "last_rank": 1,
                "rank_sort": 1,
                "total": 1464,
                "entry": 3256999,
                "entry_name": "Moorland United"
            },
            {
                "id": 1387213,
                "event_total": 85,
                "player_name": "Sam Bradshaw",
                "rank": 2,
                "last_rank": 7,
                "rank_sort": 2,
                "total": 1460,
                "entry": 271538,
                "entry_name": "Stranger Ings"
            },
            {
                "id": 17333566,
                "event_total": 87,
                "player_name": "Kamil Bienkowski",
                "rank": 3,
                "last_rank": 12,
                "rank_sort": 3,
                "total": 1456,
                "entry": 2977239,
                "entry_name": "MissingPersonIsMe"
            },
            {
                "id": 41239957,
                "event_total": 58,
                "player_name": "Michael Sorensen",
                "rank": 4,
                "last_rank": 2,
                "rank_sort": 4,
                "total": 1454,
                "entry": 5905161,
                "entry_name": "Malta"
            },
            {
                "id": 11808676,
                "event_total": 76,
                "player_name": "العندليب الأسمر",
                "rank": 5,
                "last_rank": 11,
                "rank_sort": 5,
                "total": 1447,
                "entry": 2156553,
                "entry_name": "العندليب الأسمر"
            },
            {
                "id": 3391578,
                "event_total": 78,
                "player_name": "Paweł Morawski",
                "rank": 6,
                "last_rank": 9,
                "rank_sort": 6,
                "total": 1447,
                "entry": 655238,
                "entry_name": "FCMoro"
            },
            {
                "id": 1710796,
                "event_total": 99,
                "player_name": "Will McClatchie",
                "rank": 7,
                "last_rank": 57,
                "rank_sort": 7,
                "total": 1444,
                "entry": 334720,
                "entry_name": "McClatchie FC"
            },
            {
                "id": 1702043,
                "event_total": 67,
                "player_name": "Billy Coghlin",
                "rank": 8,
                "last_rank": 6,
                "rank_sort": 8,
                "total": 1443,
                "entry": 333232,
                "entry_name": "Mount Dracula"
            },
            {
                "id": 465398,
                "event_total": 66,
                "player_name": "Dherar Almohammad alkhalaf",
                "rank": 9,
                "last_rank": 5,
                "rank_sort": 9,
                "total": 1443,
                "entry": 87937,
                "entry_name": "Dherar"
            },
            {
                "id": 6571576,
                "event_total": 83,
                "player_name": "Rasmus Yang Bjelke",
                "rank": 10,
                "last_rank": 23,
                "rank_sort": 10,
                "total": 1441,
                "entry": 1242578,
                "entry_name": "ShawsWACC Redemption"
            },
            {
                "id": 27058325,
                "event_total": 80,
                "player_name": "Calum Bortolussi",
                "rank": 11,
                "last_rank": 27,
                "rank_sort": 11,
                "total": 1437,
                "entry": 4357469,
                "entry_name": "Return of the Calum"
            },
            {
                "id": 10903520,
                "event_total": 51,
                "player_name": "Cedric Jirsell",
                "rank": 12,
                "last_rank": 4,
                "rank_sort": 12,
                "total": 1437,
                "entry": 2007134,
                "entry_name": "Lallanas in pyjamas"
            },
            {
                "id": 1482677,
                "event_total": 79,
                "player_name": "Matthew McNamee",
                "rank": 13,
                "last_rank": 29,
                "rank_sort": 13,
                "total": 1436,
                "entry": 290455,
                "entry_name": "He Shoots…He Saves!"
            },
            {
                "id": 45499825,
                "event_total": 84,
                "player_name": "Simon Rodgers",
                "rank": 14,
                "last_rank": 43,
                "rank_sort": 14,
                "total": 1435,
                "entry": 6398885,
                "entry_name": "BusStopInHounslow"
            },
            {
                "id": 4345476,
                "event_total": 68,
                "player_name": "Arjun Kochhar",
                "rank": 15,
                "last_rank": 13,
                "rank_sort": 15,
                "total": 1434,
                "entry": 833996,
                "entry_name": "Kinder Mbeumo"
            },
            {
                "id": 7968146,
                "event_total": 44,
                "player_name": "David O'Brien",
                "rank": 16,
                "last_rank": 3,
                "rank_sort": 16,
                "total": 1433,
                "entry": 1499841,
                "entry_name": "Barstonworth"
            },
            {
                "id": 51362943,
                "event_total": 80,
                "player_name": "Lewis Haynes",
                "rank": 17,
                "last_rank": 36,
                "rank_sort": 17,
                "total": 1433,
                "entry": 7108336,
                "entry_name": "Cheese’s Champions"
            },
            {
                "id": 1109471,
                "event_total": 70,
                "player_name": "Morten Troelsen",
                "rank": 18,
                "last_rank": 16,
                "rank_sort": 18,
                "total": 1433,
                "entry": 215112,
                "entry_name": "Sterling Dived"
            },
            {
                "id": 9015982,
                "event_total": 88,
                "player_name": "Anthony Davis",
                "rank": 19,
                "last_rank": 66,
                "rank_sort": 19,
                "total": 1431,
                "entry": 1687068,
                "entry_name": "& Toney"
            },
            {
                "id": 13539927,
                "event_total": 58,
                "player_name": "Mikkel Kaas",
                "rank": 20,
                "last_rank": 8,
                "rank_sort": 20,
                "total": 1431,
                "entry": 2443908,
                "entry_name": "Brilliant Brentford"
            },
            {
                "id": 2981505,
                "event_total": 72,
                "player_name": "Geir Svenson",
                "rank": 21,
                "last_rank": 21,
                "rank_sort": 21,
                "total": 1431,
                "entry": 580278,
                "entry_name": "Hit-men 78 lookouts"
            },
            {
                "id": 6167377,
                "event_total": 56,
                "player_name": "Ed Taylor",
                "rank": 22,
                "last_rank": 10,
                "rank_sort": 22,
                "total": 1428,
                "entry": 1168228,
                "entry_name": "Hector's House"
            },
            {
                "id": 19871315,
                "event_total": 66,
                "player_name": "Dev Solanki",
                "rank": 22,
                "last_rank": 14,
                "rank_sort": 23,
                "total": 1428,
                "entry": 3358780,
                "entry_name": "It doesn’t Mata"
            },
            {
                "id": 23069130,
                "event_total": 80,
                "player_name": "Alex C",
                "rank": 24,
                "last_rank": 51,
                "rank_sort": 24,
                "total": 1427,
                "entry": 3827936,
                "entry_name": "Klopptimus Prime"
            },
            {
                "id": 30978863,
                "event_total": 67,
                "player_name": "Matthew Herbert",
                "rank": 25,
                "last_rank": 20,
                "rank_sort": 25,
                "total": 1426,
                "entry": 4832220,
                "entry_name": "Change Name"
            },
            {
                "id": 31954442,
                "event_total": 68,
                "player_name": "Nikolai Alnor",
                "rank": 26,
                "last_rank": 25,
                "rank_sort": 26,
                "total": 1426,
                "entry": 4959407,
                "entry_name": "Niknaldos guldklumpe"
            },
            {
                "id": 84903,
                "event_total": 90,
                "player_name": "Dwiky Eddo",
                "rank": 27,
                "last_rank": 120,
                "rank_sort": 27,
                "total": 1424,
                "entry": 17885,
                "entry_name": "Cyber Tech FC"
            },
            {
                "id": 26381793,
                "event_total": 79,
                "player_name": "Dragan Bursac",
                "rank": 28,
                "last_rank": 56,
                "rank_sort": 28,
                "total": 1424,
                "entry": 63783,
                "entry_name": "GRETNA"
            },
            {
                "id": 12558869,
                "event_total": 72,
                "player_name": "Joe Hales",
                "rank": 29,
                "last_rank": 34,
                "rank_sort": 29,
                "total": 1422,
                "entry": 2278638,
                "entry_name": "Viva La Shanter"
            },
            {
                "id": 569823,
                "event_total": 66,
                "player_name": "Vegard Bjørnstad",
                "rank": 30,
                "last_rank": 32,
                "rank_sort": 30,
                "total": 1422,
                "entry": 107946,
                "entry_name": "Svingvoll Bees"
            },
            {
                "id": 1542552,
                "event_total": 69,
                "player_name": "gerard nestor",
                "rank": 31,
                "last_rank": 40,
                "rank_sort": 31,
                "total": 1421,
                "entry": 302102,
                "entry_name": "Rio De Gort"
            },
            {
                "id": 2053263,
                "event_total": 67,
                "player_name": "Patrick Toland",
                "rank": 32,
                "last_rank": 28,
                "rank_sort": 32,
                "total": 1420,
                "entry": 401331,
                "entry_name": "Paddy’s Lions"
            },
            {
                "id": 23626622,
                "event_total": 57,
                "player_name": "Rob Schiller",
                "rank": 33,
                "last_rank": 17,
                "rank_sort": 33,
                "total": 1420,
                "entry": 3908321,
                "entry_name": "Route One Fc"
            },
            {
                "id": 955837,
                "event_total": 90,
                "player_name": "Matt Griffin",
                "rank": 34,
                "last_rank": 155,
                "rank_sort": 34,
                "total": 1420,
                "entry": 183912,
                "entry_name": "ToneySopranos"
            },
            {
                "id": 6593015,
                "event_total": 67,
                "player_name": "Steve Stamp",
                "rank": 35,
                "last_rank": 37,
                "rank_sort": 35,
                "total": 1419,
                "entry": 1246186,
                "entry_name": "Dean Gaffney"
            },
            {
                "id": 13292241,
                "event_total": 82,
                "player_name": "Jesse Watt",
                "rank": 36,
                "last_rank": 102,
                "rank_sort": 36,
                "total": 1419,
                "entry": 2402779,
                "entry_name": "Watt City"
            },
            {
                "id": 8036515,
                "event_total": 56,
                "player_name": "Gareth Lee",
                "rank": 37,
                "last_rank": 15,
                "rank_sort": 37,
                "total": 1419,
                "entry": 1512475,
                "entry_name": "Sound of the Lloris"
            },
            {
                "id": 50026905,
                "event_total": 59,
                "player_name": "Matt Skinner",
                "rank": 38,
                "last_rank": 22,
                "rank_sort": 38,
                "total": 1417,
                "entry": 6950672,
                "entry_name": "Royal Menyagi FC"
            },
            {
                "id": 27473275,
                "event_total": 69,
                "player_name": "Gabriel Miller",
                "rank": 39,
                "last_rank": 41,
                "rank_sort": 39,
                "total": 1417,
                "entry": 4403886,
                "entry_name": "Blunderland FC"
            },
            {
                "id": 21735558,
                "event_total": 59,
                "player_name": "grace grace",
                "rank": 40,
                "last_rank": 26,
                "rank_sort": 40,
                "total": 1416,
                "entry": 3629582,
                "entry_name": "White panthère"
            },
            {
                "id": 32559149,
                "event_total": 74,
                "player_name": "Christoffer Lund",
                "rank": 41,
                "last_rank": 74,
                "rank_sort": 41,
                "total": 1416,
                "entry": 5037342,
                "entry_name": "Bow Wow Athletic"
            },
            {
                "id": 11916184,
                "event_total": 64,
                "player_name": "Luke Shillito",
                "rank": 42,
                "last_rank": 38,
                "rank_sort": 42,
                "total": 1416,
                "entry": 2173745,
                "entry_name": "Martinellitubbies"
            },
            {
                "id": 19645673,
                "event_total": 62,
                "player_name": "paul lynch",
                "rank": 43,
                "last_rank": 35,
                "rank_sort": 43,
                "total": 1416,
                "entry": 3323730,
                "entry_name": "The Mighty Mr L"
            },
            {
                "id": 1621875,
                "event_total": 97,
                "player_name": "Mark Goodman",
                "rank": 44,
                "last_rank": 285,
                "rank_sort": 44,
                "total": 1416,
                "entry": 317982,
                "entry_name": "Maximum20Characters"
            },
            {
                "id": 24910015,
                "event_total": 77,
                "player_name": "Lars Mathiesen",
                "rank": 44,
                "last_rank": 94,
                "rank_sort": 45,
                "total": 1416,
                "entry": 4089931,
                "entry_name": "Nordvest FC"
            },
            {
                "id": 1085828,
                "event_total": 79,
                "player_name": "Robert Simmons",
                "rank": 46,
                "last_rank": 108,
                "rank_sort": 46,
                "total": 1416,
                "entry": 210246,
                "entry_name": "Slamming Andros FC"
            },
            {
                "id": 12872562,
                "event_total": 89,
                "player_name": "Ahmad Fahrudin",
                "rank": 47,
                "last_rank": 202,
                "rank_sort": 47,
                "total": 1415,
                "entry": 2331449,
                "entry_name": "Baygon FC"
            },
            {
                "id": 3355267,
                "event_total": 67,
                "player_name": "Shanks Sama #",
                "rank": 48,
                "last_rank": 50,
                "rank_sort": 48,
                "total": 1414,
                "entry": 648784,
                "entry_name": "Ali Mohammed"
            },
            {
                "id": 5964499,
                "event_total": 72,
                "player_name": "Ivan Krastilov",
                "rank": 49,
                "last_rank": 53,
                "rank_sort": 49,
                "total": 1414,
                "entry": 1129792,
                "entry_name": "Bako Team"
            },
            {
                "id": 938387,
                "event_total": 62,
                "player_name": "Andreas Parsmyr",
                "rank": 50,
                "last_rank": 31,
                "rank_sort": 50,
                "total": 1414,
                "entry": 180554,
                "entry_name": "Domagoj Vida FC"
            }
        ]
    }
}